…
``` r
data("instacart") #import the data instacart
instacart = instacart |> #assign the variable
  as_tibble()
```

``` r
instacart |>
  count(aisle) |> #count the number of aisle
  arrange(desc(n)) #arrange the aisle in descending order
```

    ## # A tibble: 134 × 2
    ##    aisle                              n
    ##    <chr>                          <int>
    ##  1 fresh vegetables              150609
    ##  2 fresh fruits                  150473
    ##  3 packaged vegetables fruits     78493
    ##  4 yogurt                         55240
    ##  5 packaged cheese                41699
    ##  6 water seltzer sparkling water  36617
    ##  7 milk                           32644
    ##  8 chips pretzels                 31269
    ##  9 soy lactosefree                26240
    ## 10 bread                          23635
    ## # ℹ 124 more rows
…
